Got_sentiment
…
# More information: https://cran.r-project.org/web/packages/stringr/vignettes/regular-expressions.html

got_tokens <- got_df %>% 
  unnest_tokens(word, text_full)

got_wc <- got_tokens %>% 
  count(word) %>% 
  arrange(-n)
got_wc

## # A tibble: 11,826 × 2
##    word      n
##    <chr> <int>
##  1 the   17988
##  2 and    8997
##  3 to     6640
##  4 a      6461
##  5 of     6200
##  6 he     5166
##  7 his    5161
##  8 was    3904
##  9 her    3659
## 10 you    3267
## # ℹ 11,816 more rows
…
A word cloud of got pdf words (non-numeric)

# There are almost 2000 unique words 
length(unique(got_no_numeric$word))

## [1] 11209

# We probably don't want to include them all in a word cloud. Let's filter to only include the top 100 most frequent?
got_top100 <- got_no_numeric %>% 
  count(word) %>% 
  arrange(-n) %>% 
  head(100)
got_top100

## # A tibble: 100 × 2
##    word       n
##    <chr>  <int>
##  1 lord    1341
##  2 ser     1023
##  3 jon      787
##  4 ned      743
##  5 tyrion   591
##  6 eyes     567
##  7 hand     567
##  8 king     542
##  9 father   512
## 10 told     504
## # ℹ 90 more rows
…
Sentiment analysis

“afinn”: Words ranked from -5 (very negative) to +5 (very
positive)

get_sentiments(lexicon = "afinn")

## # A tibble: 2,477 × 2
##    word       value
##    <chr>      <dbl>
##  1 abandon       -2
##  2 abandoned     -2
##  3 abandons      -2
##  4 abducted      -2
##  5 abduction     -2
##  6 abductions    -2
##  7 abhor         -3
##  8 abhorred      -3
##  9 abhorrent     -3
## 10 abhors        -3
## # ℹ 2,467 more rows

# You should be prompted to install lexicon - choose yes!

# Let's look at the pretty positive words:
afinn_pos <- get_sentiments("afinn") %>% 
  filter(value %in% c(3,4,5))

# Do not look at negative words in class. 
afinn_pos

## # A tibble: 222 × 2
##    word         value
##    <chr>        <dbl>
##  1 admire           3
##  2 admired          3
##  3 admires          3
##  4 admiring         3
##  5 adorable         3
##  6 adore            3
##  7 adored           3
##  8 adores           3
##  9 affection        3
## 10 affectionate     3
## # ℹ 212 more rows

bing: binary, “positive” or “negative”

get_sentiments(lexicon = "bing")

## # A tibble: 6,786 × 2
##    word        sentiment
##    <chr>       <chr>    
##  1 2-faces     negative 
##  2 abnormal    negative 
##  3 abolish     negative 
##  4 abominable  negative 
##  5 abominably  negative 
##  6 abominate   negative 
##  7 abomination negative 
##  8 abort       negative 
##  9 aborted     negative 
## 10 aborts      negative 
## # ℹ 6,776 more rows

# You should be prompted to install lexicon - choose yes!

Now nrc:

get_sentiments(lexicon = "nrc")

## # A tibble: 13,872 × 2
##    word        sentiment
##    <chr>       <chr>    
##  1 abacus      trust    
##  2 abandon     fear     
##  3 abandon     negative 
##  4 abandon     sadness  
##  5 abandoned   anger    
##  6 abandoned   fear     
##  7 abandoned   negative 
##  8 abandoned   sadness  
##  9 abandonment anger    
## 10 abandonment fear     
## # ℹ 13,862 more rows

# You should be prompted to install lexicon - choose yes!

Sentiment analysis with afinn:

got_afinn <- got_stop %>% 
  inner_join(get_sentiments("afinn"))
got_afinn

## # A tibble: 13,058 × 2
##    word  value
##    <chr> <dbl>
##  1 fire     -2
##  2 dead     -3
##  3 dead     -3
##  4 smile     2
##  5 dead     -3
##  6 dead     -3
##  7 dead     -3
##  8 dead     -3
##  9 dead     -3
## 10 drag     -1
## # ℹ 13,048 more rows
…
